%YAML 1.1
%TAG !u! tag:unity3d.com,2011:
--- !u!114 &11400000
MonoBehaviour:
  m_ObjectHideFlags: 0
  m_PrefabParentObject: {fileID: 0}
  m_PrefabInternal: {fileID: 0}
  m_GameObject: {fileID: 0}
  m_Enabled: 1
  m_EditorHideFlags: 0
  m_Script: {fileID: 2019389346, guid: 89f0137620f6af44b9ba852b4190e64e, type: 3}
  m_Name: ReaperCoInputPromptsButtons
  m_EditorClassIdentifier: 
  hashCode: -1837872615
  material: {fileID: 21265784180380658}
  materialHashCode: 0
  spriteSheet: {fileID: 2800000, guid: 585ac1b96c2e836488009046048c9f4d, type: 3}
  spriteInfoList:
  - id: 0
    x: 10
    y: 1108
    width: 82
    height: 82
    xOffset: 0
    yOffset: 82
    xAdvance: 82
    scale: 1.5
    name: ReaperCoInputPromptsButtons_0
    hashCode: 11483670
    unicode: 0
    pivot: {x: 0, y: 82}
    sprite: {fileID: 21300000, guid: 585ac1b96c2e836488009046048c9f4d, type: 3}
  - id: 1
    x: 116
    y: 1108
    width: 82
    height: 82
    xOffset: 0
    yOffset: 82
    xAdvance: 82
    scale: 1.5
    name: ReaperCoInputPromptsButtons_1
    hashCode: 11483671
    unicode: 0
    pivot: {x: 0, y: 82}
    sprite: {fileID: 21300002, guid: 585ac1b96c2e836488009046048c9f4d, type: 3}
  - id: 2
    x: 225
    y: 1108
    width: 82
    height: 82
    xOffset: 0
    yOffset: 82
    xAdvance: 82
    scale: 1.5
    name: ReaperCoInputPromptsButtons_2
    hashCode: 11483668
    unicode: 0
    pivot: {x: 0, y: 82}
    sprite: {fileID: 21300004, guid: 585ac1b96c2e836488009046048c9f4d, type: 3}
  - id: 3
    x: 333
    y: 1108
    width: 82
    height: 82
    xOffset: 0
    yOffset: 82
    xAdvance: 82
    scale: 1.5
    name: ReaperCoInputPromptsButtons_3
    hashCode: 11483669
    unicode: 0
    pivot: {x: 0, y: 82}
    sprite: {fileID: 21300006, guid: 585ac1b96c2e836488009046048c9f4d, type: 3}
  - id: 4
    x: 439
    y: 1105
    width: 90
    height: 89
    xOffset: 0
    yOffset: 89
    xAdvance: 90
    scale: 1.6
    name: ReaperCoInputPromptsButtons_4
    hashCode: 11483666
    unicode: 0
    pivot: {x: 0, y: 89}
    sprite: {fileID: 21300008, guid: 585ac1b96c2e836488009046048c9f4d, type: 3}
  - id: 5
    x: 555
    y: 1104
    width: 90
    height: 89
    xOffset: 0
    yOffset: 89
    xAdvance: 90
    scale: 1.6
    name: ReaperCoInputPromptsButtons_5
    hashCode: 11483667
    unicode: 0
    pivot: {x: 0, y: 89}
    sprite: {fileID: 21300010, guid: 585ac1b96c2e836488009046048c9f4d, type: 3}
  - id: 6
    x: 120
    y: 1020
    width: 82
    height: 58
    xOffset: 0
    yOffset: 58
    xAdvance: 82
    scale: 1.5
    name: ReaperCoInputPromptsButtons_7
    hashCode: 11483665
    unicode: 0
    pivot: {x: 0, y: 58}
    sprite: {fileID: 21300014, guid: 585ac1b96c2e836488009046048c9f4d, type: 3}
  - id: 7
    x: 12
    y: 1017
    width: 84
    height: 58
    xOffset: 0
    yOffset: 58
    xAdvance: 84
    scale: 1.5
    name: ReaperCoInputPromptsButtons_6
    hashCode: 11483664
    unicode: 0
    pivot: {x: 0, y: 58}
    sprite: {fileID: 21300012, guid: 585ac1b96c2e836488009046048c9f4d, type: 3}
  - id: 8
    x: 231
    y: 1003
    width: 74
    height: 84
    xOffset: 0
    yOffset: 84
    xAdvance: 74
    scale: 1.5
    name: ReaperCoInputPromptsButtons_8
    hashCode: 11483678
    unicode: 0
    pivot: {x: 0, y: 84}
    sprite: {fileID: 21300016, guid: 585ac1b96c2e836488009046048c9f4d, type: 3}
  - id: 9
    x: 333
    y: 1003
    width: 74
    height: 84
    xOffset: 0
    yOffset: 84
    xAdvance: 74
    scale: 1.5
    name: ReaperCoInputPromptsButtons_9
    hashCode: 11483679
    unicode: 0
    pivot: {x: 0, y: 84}
    sprite: {fileID: 21300018, guid: 585ac1b96c2e836488009046048c9f4d, type: 3}
  - id: 10
    x: 440
    y: 997
    width: 94
    height: 94
    xOffset: 0
    yOffset: 94
    xAdvance: 94
    scale: 1.5
    name: ReaperCoInputPromptsButtons_10
    hashCode: 378961095
    unicode: 0
    pivot: {x: 0, y: 94}
    sprite: {fileID: 21300020, guid: 585ac1b96c2e836488009046048c9f4d, type: 3}
  - id: 11
    x: 11
    y: 891
    width: 82
    height: 82
    xOffset: 0
    yOffset: 82
    xAdvance: 82
    scale: 1.5
    name: ReaperCoInputPromptsButtons_11
    hashCode: 378961094
    unicode: 0
    pivot: {x: 0, y: 82}
    sprite: {fileID: 21300022, guid: 585ac1b96c2e836488009046048c9f4d, type: 3}
  - id: 12
    x: 119
    y: 886
    width: 82
    height: 82
    xOffset: 0
    yOffset: 82
    xAdvance: 82
    scale: 1.5
    name: ReaperCoInputPromptsButtons_12
    hashCode: 378961093
    unicode: 0
    pivot: {x: 0, y: 82}
    sprite: {fileID: 21300024, guid: 585ac1b96c2e836488009046048c9f4d, type: 3}
  - id: 13
    x: 335
    y: 886
    width: 82
    height: 82
    xOffset: 0
    yOffset: 82
    xAdvance: 82
    scale: 1.5
    name: ReaperCoInputPromptsButtons_14
    hashCode: 378961091
    unicode: 0
    pivot: {x: 0, y: 82}
    sprite: {fileID: 21300028, guid: 585ac1b96c2e836488009046048c9f4d, type: 3}
  - id: 14
    x: 230
    y: 885
    width: 82
    height: 82
    xOffset: 0
    yOffset: 82
    xAdvance: 82
    scale: 1.5
    name: ReaperCoInputPromptsButtons_13
    hashCode: 378961092
    unicode: 0
    pivot: {x: 0, y: 82}
    sprite: {fileID: 21300026, guid: 585ac1b96c2e836488009046048c9f4d, type: 3}
  - id: 15
    x: 118
    y: 796
    width: 88
    height: 47
    xOffset: 0
    yOffset: 47
    xAdvance: 88
    scale: 1.5
    name: ReaperCoInputPromptsButtons_16
    hashCode: 378961089
    unicode: 0
    pivot: {x: 0, y: 47}
    sprite: {fileID: 21300032, guid: 585ac1b96c2e836488009046048c9f4d, type: 3}
  - id: 16
    x: 8
    y: 794
    width: 88
    height: 47
    xOffset: 0
    yOffset: 47
    xAdvance: 88
    scale: 1.5
    name: ReaperCoInputPromptsButtons_15
    hashCode: 378961090
    unicode: 0
    pivot: {x: 0, y: 47}
    sprite: {fileID: 21300030, guid: 585ac1b96c2e836488009046048c9f4d, type: 3}
  - id: 17
    x: 231
    y: 777
    width: 80
    height: 86
    xOffset: 0
    yOffset: 86
    xAdvance: 80
    scale: 1.5
    name: ReaperCoInputPromptsButtons_17
    hashCode: 378961088
    unicode: 0
    pivot: {x: 0, y: 86}
    sprite: {fileID: 21300034, guid: 585ac1b96c2e836488009046048c9f4d, type: 3}
  - id: 18
    x: 348
    y: 773
    width: 80
    height: 86
    xOffset: 0
    yOffset: 86
    xAdvance: 80
    scale: 1.5
    name: ReaperCoInputPromptsButtons_18
    hashCode: 378961103
    unicode: 0
    pivot: {x: 0, y: 86}
    sprite: {fileID: 21300036, guid: 585ac1b96c2e836488009046048c9f4d, type: 3}
  - id: 19
    x: 32
    y: 666
    width: 107
    height: 68
    xOffset: -1.4
    yOffset: 63
    xAdvance: 107
    scale: 1.6
    name: WASD_Keyboard
    hashCode: 993049011
    unicode: 0
    pivot: {x: 0, y: 68}
    sprite: {fileID: 21300038, guid: 585ac1b96c2e836488009046048c9f4d, type: 3}
  - id: 20
    x: 159
    y: 654
    width: 68
    height: 92
    xOffset: -4.07
    yOffset: 80.6
    xAdvance: 68
    scale: 1.5
    name: Mouse_Right-Click
    hashCode: 1368351293
    unicode: 0
    pivot: {x: 0, y: 92}
    sprite: {fileID: 21300040, guid: 585ac1b96c2e836488009046048c9f4d, type: 3}
  - id: 21
    x: 247
    y: 654
    width: 68
    height: 92
    xOffset: -4.07
    yOffset: 80.6
    xAdvance: 68
    scale: 1.5
    name: Mouse_Left-Click
    hashCode: 871124198
    unicode: 0
    pivot: {x: 0, y: 92}
    sprite: {fileID: 21300042, guid: 585ac1b96c2e836488009046048c9f4d, type: 3}
  - id: 22
    x: 334
    y: 654
    width: 68
    height: 92
    xOffset: -4.07
    yOffset: 80.6
    xAdvance: 68
    scale: 1.5
    name: Mouse
    hashCode: 87461121
    unicode: 0
    pivot: {x: 0, y: 92}
    sprite: {fileID: 21300044, guid: 585ac1b96c2e836488009046048c9f4d, type: 3}
  - id: 23
    x: 238
    y: 577
    width: 96
    height: 48
    xOffset: -3.6
    yOffset: 43.89
    xAdvance: 96
    scale: 1.2
    name: Spacebar
    hashCode: -1204319627
    unicode: 0
    pivot: {x: 0, y: 48}
    sprite: {fileID: 21300050, guid: 585ac1b96c2e836488009046048c9f4d, type: 3}
  - id: 24
    x: 345
    y: 577
    width: 96
    height: 48
    xOffset: -3.6
    yOffset: 43.89
    xAdvance: 96
    scale: 1.2
    name: Shift
    hashCode: 99897088
    unicode: 0
    pivot: {x: 0, y: 48}
    sprite: {fileID: 21300052, guid: 585ac1b96c2e836488009046048c9f4d, type: 3}
  - id: 25
    x: 49
    y: 564
    width: 74
    height: 74
    xOffset: -1.4
    yOffset: 67
    xAdvance: 74
    scale: 1.2
    name: Q__Keyboard
    hashCode: 689067068
    unicode: 0
    pivot: {x: 0, y: 74}
    sprite: {fileID: 21300046, guid: 585ac1b96c2e836488009046048c9f4d, type: 3}
  - id: 26
    x: 156
    y: 564
    width: 74
    height: 74
    xOffset: -1.4
    yOffset: 67
    xAdvance: 74
    scale: 1.2
    name: R_Keyboard
    hashCode: 745190656
    unicode: 0
    pivot: {x: 0, y: 74}
    sprite: {fileID: 21300048, guid: 585ac1b96c2e836488009046048c9f4d, type: 3}
  fallbackSpriteAssets: []
--- !u!21 &21265784180380658
Material:
  serializedVersion: 6
  m_ObjectHideFlags: 1
  m_PrefabParentObject: {fileID: 0}
  m_PrefabInternal: {fileID: 0}
  m_Name: TextMeshPro/Sprite
  m_Shader: {fileID: 4800000, guid: 3a1c68c8292caf046bd21158886c5e40, type: 3}
  m_ShaderKeywords: 
  m_LightmapFlags: 4
  m_EnableInstancingVariants: 0
  m_DoubleSidedGI: 0
  m_CustomRenderQueue: -1
  stringTagMap: {}
  disabledShaderPasses: []
  m_SavedProperties:
    serializedVersion: 3
    m_TexEnvs:
    - _MainTex:
        m_Texture: {fileID: 2800000, guid: 585ac1b96c2e836488009046048c9f4d, type: 3}
        m_Scale: {x: 1, y: 1}
        m_Offset: {x: 0, y: 0}
    m_Floats:
    - _ColorMask: 15
    - _Stencil: 0
    - _StencilComp: 8
    - _StencilOp: 0
    - _StencilReadMask: 255
    - _StencilWriteMask: 255
    - _UseUIAlphaClip: 0
    m_Colors:
    - _ClipRect: {r: -32767, g: -32767, b: 32767, a: 32767}
    - _Color: {r: 1, g: 1, b: 1, a: 1}
