%YAML 1.1
%TAG !u! tag:unity3d.com,2011:
--- !u!114 &11400000
MonoBehaviour:
  m_ObjectHideFlags: 0
  m_PrefabParentObject: {fileID: 0}
  m_PrefabInternal: {fileID: 0}
  m_GameObject: {fileID: 0}
  m_Enabled: 1
  m_EditorHideFlags: 0
  m_Script: {fileID: 2108210716, guid: 89f0137620f6af44b9ba852b4190e64e, type: 3}
  m_Name: Character Name Gradient
  m_EditorClassIdentifier: 
  topLeft: {r: 1, g: 1, b: 1, a: 1}
  topRight: {r: 0.89705884, g: 0.8679657, b: 0.7717345, a: 1}
  bottomLeft: {r: 0.88235295, g: 0.85674894, b: 0.77205884, a: 1}
  bottomRight: {r: 0.6985294, g: 0.5662523, b: 0.43144464, a: 1}
