%YAML 1.1
%TAG !u! tag:unity3d.com,2011:
--- !u!1045 &1
EditorBuildSettings:
  m_ObjectHideFlags: 0
  serializedVersion: 2
  m_Scenes:
  - enabled: 1
    path: Assets/Scenes/Main Menu.unity
    guid: dcfbc977a4bf0d4488eb7d9ef9995c31
  - enabled: 1
    path: Assets/Scenes/PersistantObjects.unity
    guid: d87b74945a01c8842bff92c21222e861
  - enabled: 1
    path: Assets/Scenes/HubWorld.unity
    guid: 7f7f042c0ab521a46b198bc52f6c86e8
  - enabled: 1
    path: Assets/Scenes/MedievalWorld.unity
    guid: ba3f008fd950aaa458e3a9cfabebdacb
  - enabled: 1
    path: Assets/Scenes/Boss.unity
    guid: 18f982c75862130469cbcf4adde8bdac
